
graph bfs {
1 -- 2;
1 -- 5;
1 -- 6;
1 -- 8;
1 -- 9;
1 -- 12;
1 -- 13;
1 -- 14;
1 -- 15;
1 -- 16;
1 -- 17;
1 -- 18;
1 -- 20;
1 -- 22;
1 -- 23;
1 -- 24;
1 -- 26;
1 -- 27;
1 -- 29;
1 -- 31;
1 -- 32;
1 -- 35;
1 -- 36;
1 -- 37;
1 -- 38;
1 -- 44;
1 -- 48;
1 -- 49;
2 -- 3;
2 -- 7;
2 -- 11;
2 -- 21;
2 -- 28;
2 -- 30;
2 -- 33;
2 -- 34;
2 -- 40;
2 -- 42;
2 -- 46;
2 -- 47;
5 -- 10;
5 -- 39;
5 -- 45;
6 -- 19;
6 -- 41;
8 -- 25;
8 -- 43;
49 -- 50;
3 -- 4;


}
