
graph K_in {
1 -- 17;
2 -- 12;
3 -- 17;
4 -- 12;
4 -- 14;
5 -- 7;
5 -- 11;
5 -- 14;
6 -- 16;
6 -- 18;
7 -- 15;
8 -- 19;
9 -- 13;
10 -- 19;
13 -- 18;
14 -- 16;
16 -- 17;
18 -- 19;
19 -- 20(286)


}
