
graph K_in {
1 -- 25;
1 -- 30;
2 -- 4;
2 -- 12;
2 -- 39;
3 -- 17;
4 -- 23;
5 -- 14;
5 -- 22;
5 -- 29;
6 -- 25;
7 -- 16;
8 -- 12;
8 -- 32;
8 -- 33;
9 -- 19;
10 -- 37;
11 -- 20;
12 -- 15;
12 -- 37;
13 -- 28;
14 -- 17;
14 -- 21;
16 -- 18;
16 -- 32;
17 -- 24;
17 -- 35;
19 -- 21;
20 -- 27;
20 -- 28;
20 -- 34;
21 -- 34;
26 -- 30;
26 -- 36;
31 -- 36;
32 -- 34;
32 -- 38;
36 -- 37;
39 -- 40(179)


}
