
graph bara {
1 -- 2;
1 -- 4;
2 -- 5;
3 -- 5;
4 -- 5;
1 -- 6;
3 -- 6;
4 -- 9;
6 -- 9;
9 -- 11;
11 -- 12;
12 -- 14;
11 -- 15;
12 -- 15;
14 -- 15;
14 -- 16;
16 -- 18;
18 -- 19;
16 -- 20;
19 -- 20;
18 -- 23;
20 -- 23;
23 -- 28;
19 -- 30;
28 -- 30;
0 -- 0;


}
